{
  "version": "1.0.0",
  "description": "An Snap written to deal with identities onchain",
  "proposedName": "Identity Snap",
  "repository": {
    "type": "git",
    "url": "git+https://gitlab.com/lift-hackaton/identity.git"
  },
  "source": {
    "shasum": "c551VwI5E5zGr9L7UMWVfqPxiD94WTZ+UcWpDqOB3kA=",
    "location": {
      "npm": {
        "filePath": "dist/bundle.js",
        "iconPath": "images/icon.svg",
        "packageName": "@arvati/identity-snap",
        "registry": "https://registry.npmjs.org/"
      }
    }
  },
  "initialPermissions": {
    "snap_confirm": {},
    "endowment:network-access": {},
    "snap_manageState": {},
    "snap_getBip44Entropy": [
      {
        "coinType": 60
      }
    ],
    "snap_notify": {}
  },
  "manifestVersion": "0.1"
}
